{
  "version": "https://jsonfeed.org/version/1",
  "title": "JSON Feed",
  "description": "JSON Feed is a pragmatic syndication format for blogs, microblogs, and other time-based content.",
  "home_page_url": "https://jsonfeed.org/",
  "feed_url": "https://jsonfeed.org/feed.json",
  "user_comment": "Bla bla bla.",
  "favicon": "https://jsonfeed.org/graphics/icon.png",
  "author": {
    "name": "Brent Simmons and Manton Reece"
  },
  "items": [
    {
      "id": "https://jsonfeed.org/2017/05/17/announcing_json_feed",
      "url": "https://jsonfeed.org/2017/05/17/announcing_json_feed",
      "title": "Announcing JSON Feed",
      "content_html": "A whole lot of content here",
      "date_published": "2017-05-17T08:02:12-07:00"
    }
  ],
  "img": "https://here.there/image"
}
